{
  "date_created": "2017-04-19T13:40:51+00:00",
  "date_given": "2017-04-19T13:40:51+00:00",
  "tags": ["curry", "friday", "proletariat"],
  "quote": null,
  "financial_data": null,
  "media": "https://thehungryguest.com/wp-content/uploads/2014/01/sag-aloo.jpg",
  "location": null,
  "description": "Hello, I am the first ever post created from an external application"
}
